{
    "key": "group_5d711f7431265",
    "title": "Side bar",
    "fields": [
        {
            "key": "field_5d711ed494362",
            "label": "Tagline",
            "name": "side_bar_title",
            "type": "text",
            "instructions": "",
            "required": 0,
            "conditional_logic": 0,
            "wrapper": {
                "width": "",
                "class": "",
                "id": ""
            },
            "default_value": "",
            "placeholder": "Related solutions",
            "prepend": "",
            "append": "",
            "maxlength": ""
        },
        {
            "key": "field_5d711f0394363",
            "label": "Image",
            "name": "side_bar_image",
            "type": "image",
            "instructions": "",
            "required": 0,
            "conditional_logic": 0,
            "wrapper": {
                "width": "",
                "class": "",
                "id": ""
            },
            "return_format": "array",
            "preview_size": "thumbnail",
            "library": "all",
            "min_width": "",
            "min_height": "",
            "min_size": "",
            "max_width": "",
            "max_height": "",
            "max_size": "",
            "mime_types": ""
        },
        {
            "key": "field_5dcad9d2f9212",
            "label": "Title",
            "name": "sidebar-title",
            "type": "text",
            "instructions": "",
            "required": 0,
            "conditional_logic": 0,
            "wrapper": {
                "width": "",
                "class": "",
                "id": ""
            },
            "default_value": "",
            "placeholder": "",
            "prepend": "",
            "append": "",
            "maxlength": ""
        },
        {
            "key": "field_5d711f0894364",
            "label": "Copy",
            "name": "side_bar_copy",
            "type": "wysiwyg",
            "instructions": "",
            "required": 0,
            "conditional_logic": 0,
            "wrapper": {
                "width": "",
                "class": "",
                "id": ""
            },
            "default_value": "",
            "tabs": "all",
            "toolbar": "text_and_link",
            "media_upload": 0,
            "delay": 0
        },
        {
            "key": "field_5dcada8124921",
            "label": "Link",
            "name": "sidebar-link",
            "type": "link",
            "instructions": "",
            "required": 0,
            "conditional_logic": 0,
            "wrapper": {
                "width": "",
                "class": "",
                "id": ""
            },
            "return_format": "array"
        }
    ],
    "location": [
        [
            {
                "param": "post_template",
                "operator": "==",
                "value": "templates\/t_feature.php"
            }
        ],
        [
            {
                "param": "options_page",
                "operator": "==",
                "value": "acf-options-country-guide"
            }
        ]
    ],
    "menu_order": 2,
    "position": "normal",
    "style": "default",
    "label_placement": "top",
    "instruction_placement": "label",
    "hide_on_screen": "",
    "active": 1,
    "description": "",
    "modified": 1573575310
}