<?xml version="1.0" encoding="utf-8"?>
<!-- Generator: Adobe Illustrator 23.1.1, SVG Export Plug-In . SVG Version: 6.00 Build 0)  -->
<svg version="1.1" id="a9a3d451-5e0b-4d52-860b-f76e30ec26ca"
	 xmlns="http://www.w3.org/2000/svg" xmlns:xlink="http://www.w3.org/1999/xlink" x="0px" y="0px" viewBox="0 0 860 627"
	 style="enable-background:new 0 0 860 627;" xml:space="preserve">
<style type="text/css">
	.st0{fill:#FFF200;}
	.st1{fill:none;stroke:#FFF200;stroke-width:16.5;}
</style>
<title>ill-mobile-australia</title>
<g id="aa66a59d-4076-4102-9ffd-18e3e07c42aa">
	<g id="b56104b9-33d9-4e71-8358-73fc16a25cda">
		<g id="b8eb38e4-0287-4d4b-89d8-ea93071c99ba">
			<path class="st0" d="M860.5,559h-431v-79c6.5-1.1,12.8-3.5,18.4-7c14.9-9.5,23.8-26,23.7-43.6h-20c0.1,10.8-5.3,20.9-14.4,26.7
				c-4.2,2.7-9.1,4.2-14.1,4.5c-0.5,0-1,0-1.5,0c-16.6,0-30.1-14-30.1-31.3h-20.1c0,24.1,16.3,44.4,38.2,49.9v99h451L860.5,559z"/>
			<path id="ecb0e845-160c-4bc7-9c07-89f0e491f0c9" class="st1" d="M418.8,388.4c-22.1,1.2-39.1,20-38,42.1l0,0"/>
		</g>
	</g>
</g>
</svg>
