<?xml version="1.0" encoding="utf-8"?>
<!-- Generator: Adobe Illustrator 23.0.4, SVG Export Plug-In . SVG Version: 6.00 Build 0)  -->
<svg version="1.1" id="Layer_1" xmlns="http://www.w3.org/2000/svg" xmlns:xlink="http://www.w3.org/1999/xlink" x="0px" y="0px"
	 viewBox="0 0 225 59" style="enable-background:new 0 0 225 59;" xml:space="preserve">
<style type="text/css">
	.st0{fill-rule:evenodd;clip-rule:evenodd;fill:#D83BB3;}
	.st1{fill-rule:evenodd;clip-rule:evenodd;}
	.st2{fill-rule:evenodd;clip-rule:evenodd;fill:#FF5F00;}
	.st3{fill-rule:evenodd;clip-rule:evenodd;fill:#FFFFFF;}
</style>
<title>Group 27</title>
<desc>Created with Sketch.</desc>
<g id="pages">
	<g id="Podcast-" transform="translate(-162.000000, -241.000000)">
		<g id="Group-6" transform="translate(161.000000, 241.000000)">
			<g id="Group-27">
				<g id="Group-3" transform="translate(0.948339, 13.000000)">
					<g id="Clip-2">
					</g>
					<path id="Fill-1" class="st0" d="M46,23c0,12.7-10.3,23-23,23S0,35.7,0,23S10.3,0,23,0S46,10.3,46,23"/>
				</g>
				<path id="Fill-4" class="st1" d="M28.9,47c0,3.3-2.5,6-5.5,6s-5.5-2.7-5.5-6H28.9z"/>
				<polygon id="Fill-6" class="st1" points="59.9,18.5 59.9,17 68.9,17 68.9,18.5 65.3,18.5 65.3,28 63.5,28 63.5,18.5 				"/>
				<path id="Fill-8" class="st1" d="M77.9,28h-1.6v-4.8c0-1.1-0.7-1.8-1.7-1.8c-0.6,0-1.1,0.2-1.5,0.7s-0.6,1-0.6,1.7V28h-1.6V17
					h1.6v4.5c0.6-0.9,1.6-1.5,2.7-1.5c0.8,0,1.4,0.2,2,0.7c0.5,0.5,0.8,1.2,0.8,2V28H77.9z"/>
				<path id="Fill-10" class="st1" d="M81.6,23.1h4.8c-0.1-1.2-1.1-1.9-2.3-1.9C82.9,21.3,81.9,22,81.6,23.1L81.6,23.1z M87.9,24.3
					h-6.4c0.1,1.4,1,2.3,2.4,2.3c1.2,0,1.9-0.5,2.4-1.6l1.3,0.7c-0.8,1.5-2,2.2-3.7,2.2c-1.1,0-2.1-0.4-2.9-1.1s-1.2-1.7-1.2-2.9
					c0-1.2,0.4-2.1,1.2-2.9c0.8-0.7,1.8-1.1,2.9-1.1s2.1,0.4,2.8,1.1c0.7,0.7,1.1,1.6,1.1,2.7L87.9,24.3L87.9,24.3z"/>
				<polygon id="Fill-12" class="st1" points="63.9,54 63.9,31 78.9,31 78.9,34.2 67.4,34.2 67.4,41.2 78,41.2 78,44.3 67.4,44.3 
					67.4,54 				"/>
				<g id="Clip-15">
				</g>
				<path id="Fill-14" class="st1" d="M83.2,54h3.5V38.2h-3.5V54z M82.9,35.7h4V32h-4V35.7z"/>
				<path id="Fill-16" class="st1" d="M98.4,51.9c1.4,0,2.7-0.5,3.7-1.5s1.5-2.3,1.5-3.9c0-1.6-0.5-2.9-1.5-3.9s-2.2-1.5-3.7-1.5
					c-1.4,0-2.7,0.5-3.7,1.5s-1.5,2.3-1.5,3.9c0,1.6,0.5,2.9,1.5,3.9C95.8,51.4,97,51.9,98.4,51.9 M92.5,52.7
					c-1.7-1.5-2.5-3.6-2.5-6.2c0-2.6,0.8-4.7,2.5-6.2s3.7-2.3,6-2.3c4.1-0.1,8.5,3.1,8.5,8.5s-4.4,8.6-8.5,8.5
					C96.2,55,94.2,54.3,92.5,52.7"/>
				<path id="Fill-17" class="st1" d="M124.9,54h-3.2v-9.6c0-2.1-1.3-3.4-3.5-3.4c-1.2,0-2.1,0.4-2.9,1.3c-0.8,0.9-1.2,2.1-1.2,3.5
					V54h-3.2V38.4h3.2V41c1.1-1.9,3.1-3,5.3-3c3.2,0,5.5,2,5.5,5.4C124.9,43.4,124.9,54,124.9,54z"/>
				<path id="Fill-18" class="st1" d="M138.7,46.8v-0.5l-4.3,0.7c-2.1,0.4-3.1,1.3-3.1,2.7c0,1.5,1.1,2.4,2.7,2.4
					C136.8,52.2,138.7,49.9,138.7,46.8L138.7,46.8z M139.7,54.5c-0.5-0.6-0.9-1.6-0.9-2.8c-1.1,2.2-2.8,3.3-5.3,3.3
					c-3.2,0-5.5-2-5.5-5s2.3-4.8,5.7-5.3l5.1-0.8v-0.7c0-1.8-1.1-2.8-3.4-2.8c-2.2,0-3.3,0.9-3.3,2.1c0,0.2,0,0.3,0.1,0.5l-2.9,1
					c-0.2-0.4-0.3-0.8-0.3-1.3c0-1.3,0.6-2.4,1.8-3.4c1.2-0.9,2.7-1.4,4.7-1.4c4.4,0,6.7,1.9,6.7,5.5v7.1c0,1.6,0.3,3,1,4
					C143.2,54.5,139.7,54.5,139.7,54.5z"/>
				<path id="Fill-19" class="st1" d="M156.5,40.7c5.1,0.9,7.5,2.9,7.5,6.6c0,1.9-0.8,3.4-2.4,4.7c-1.6,1.3-3.6,1.9-6.1,1.9
					c-5.3,0-8.7-2.8-9.5-7l3.1-1.5c0.7,3.7,2.8,5.6,6.3,5.6c3,0,4.9-1.6,4.9-3.6c0-2.2-1.8-3.3-5.9-4c-4.6-0.9-7.5-3-7.5-6.5
					c0-1.7,0.7-3.2,2.2-4.3c1.5-1.1,3.4-1.6,5.7-1.6c4.2,0,7.3,2,8.6,5.5l-2.9,1.6c-1-2.7-2.9-4.1-5.8-4.1c-2.6,0-4.5,1.1-4.5,2.9
					C150.4,38.8,152.2,39.9,156.5,40.7"/>
				<path id="Fill-20" class="st1" d="M182.9,54h-3.4V44c0-2.3-1.4-3.7-3.7-3.7c-1.3,0-2.3,0.5-3.2,1.4c-0.9,1-1.3,2.2-1.3,3.6V54
					h-3.4V31h3.4v9.4c1.2-1.9,3.4-3.2,5.7-3.2c1.7,0,3.1,0.5,4.2,1.5c1.1,1,1.7,2.4,1.7,4.2V54z"/>
				<path id="Fill-21" class="st1" d="M194.4,51.9c1.4,0,2.7-0.5,3.7-1.5s1.5-2.3,1.5-3.9c0-1.6-0.5-2.9-1.5-3.9s-2.2-1.5-3.7-1.5
					c-1.4,0-2.7,0.5-3.7,1.5s-1.5,2.3-1.5,3.9c0,1.6,0.5,2.9,1.5,3.9C191.8,51.4,193,51.9,194.4,51.9 M188.5,52.7
					c-1.7-1.5-2.5-3.6-2.5-6.2c0-2.6,0.8-4.7,2.5-6.2s3.7-2.3,6-2.3c4.1-0.1,8.5,3.1,8.5,8.5s-4.4,8.6-8.5,8.5
					C192.2,55,190.2,54.3,188.5,52.7"/>
				<polygon id="Fill-22" class="st1" points="216.6,38 219.8,49.7 222.7,38 225.9,38 221.5,54 218.2,54 214.9,42.1 211.7,54 
					208.4,54 203.9,38 207.2,38 210.1,49.7 213.3,38 				"/>
				<path id="Fill-23" class="st2" d="M46.8,12.7c-2.3,4.1-7.5,5.5-11.6,3.1c-4.1-2.3-5.5-7.5-3.1-11.6c2.3-4.1,7.5-5.5,11.6-3.1
					S49.2,8.7,46.8,12.7"/>
				<path id="Fill-24" class="st3" d="M34.9,30.5c0,6.4-5.1,11.5-11.5,11.5s-11.5-5.1-11.5-11.5S17.1,19,23.4,19
					C29.8,19,34.9,24.1,34.9,30.5"/>
				<path id="Fill-25" class="st2" d="M30.9,30.5c0,4.1-3.4,7.5-7.5,7.5s-7.5-3.4-7.5-7.5s3.4-7.5,7.5-7.5
					C27.6,23,30.9,26.4,30.9,30.5"/>
				<path id="Fill-26" class="st1" d="M27.9,30c0,2.2-1.8,4-4,4s-4-1.8-4-4s1.8-4,4-4C26.2,26,27.9,27.8,27.9,30"/>
			</g>
		</g>
	</g>
</g>
</svg>
