<?xml version="1.0" encoding="utf-8"?>
<!-- Generator: Adobe Illustrator 18.1.1, SVG Export Plug-In . SVG Version: 6.00 Build 0)  -->
<!DOCTYPE svg PUBLIC "-//W3C//DTD SVG 1.1//EN" "http://www.w3.org/Graphics/SVG/1.1/DTD/svg11.dtd">
<svg version="1.1" id="Layer_1" xmlns="http://www.w3.org/2000/svg" xmlns:xlink="http://www.w3.org/1999/xlink" x="0px" y="0px"
	 width="32px" height="32px" viewBox="0 0 32 32" enable-background="new 0 0 32 32" xml:space="preserve">
<circle fill="#ffffff" cx="5.3" cy="25.3" r="4"/>
<path fill="#ffffff" d="M29.3,29.3H24C24,16.8,13.8,6.7,1.3,6.7V1.3C16.8,1.3,29.3,13.9,29.3,29.3z"/>
<path fill="#ffffff" d="M20,29.3h-5.3C14.7,22,8.7,16,1.3,16v-5.3C11.6,10.7,20,19,20,29.3z"/>
</svg>
